{
  "project_info": {
    "project_number": "529868074322",
    "firebase_url": "https://project-3691782932219541866.firebaseio.com",
    "project_id": "project-3691782932219541866",
    "storage_bucket": "project-3691782932219541866.appspot.com"
  },
  "client": [
    {
      "client_info": {
        "mobilesdk_app_id": "1:529868074322:android:038e0e3058a92fef539e8b",
        "android_client_info": {
          "package_name": "com.ammar.lovix"
        }
      },
      "oauth_client": [
        {
          "client_id": "529868074322-nohhr2cnf5tuasvc59cjbhc2aqs8rdh3.apps.googleusercontent.com",
          "client_type": 1,
          "android_info": {
            "package_name": "com.ammar.lovix",
            "certificate_hash": "e7df8e2b2db4dc71827cd9950ec4629cddd68697"
          }
        },
        {
          "client_id": "529868074322-bjiingfan8ifajfs4l9gqtsdqc13ek7q.apps.googleusercontent.com",
          "client_type": 3
        }
      ],
      "api_key": [
        {
          "current_key": "AIzaSyDAtZOcDczAH02QjWiiTRHo8xnqdsSr89c"
        }
      ],
      "services": {
        "appinvite_service": {
          "other_platform_oauth_client": [
            {
              "client_id": "529868074322-bjiingfan8ifajfs4l9gqtsdqc13ek7q.apps.googleusercontent.com",
              "client_type": 3
            }
          ]
        }
      }
    },
    {
      "client_info": {
        "mobilesdk_app_id": "1:529868074322:android:9f5a8e4b49f4c392",
        "android_client_info": {
          "package_name": "com.fer.fer"
        }
      },
      "oauth_client": [
        {
          "client_id": "529868074322-bjiingfan8ifajfs4l9gqtsdqc13ek7q.apps.googleusercontent.com",
          "client_type": 3
        }
      ],
      "api_key": [
        {
          "current_key": "AIzaSyDAtZOcDczAH02QjWiiTRHo8xnqdsSr89c"
        }
      ],
      "services": {
        "appinvite_service": {
          "other_platform_oauth_client": [
            {
              "client_id": "529868074322-bjiingfan8ifajfs4l9gqtsdqc13ek7q.apps.googleusercontent.com",
              "client_type": 3
            }
          ]
        }
      }
    },
    {
      "client_info": {
        "mobilesdk_app_id": "1:529868074322:android:58607e5bb914b2f6",
        "android_client_info": {
          "package_name": "com.google.firebase.samples.apps.friendlypix"
        }
      },
      "oauth_client": [
        {
          "client_id": "529868074322-9dp5lodfv3iv6hlqlnvrh32t1v7vdgj6.apps.googleusercontent.com",
          "client_type": 1,
          "android_info": {
            "package_name": "com.google.firebase.samples.apps.friendlypix",
            "certificate_hash": "f664ad0b6e76f13eb5328c24ba4b5c6f2e3f056f"
          }
        },
        {
          "client_id": "529868074322-bjiingfan8ifajfs4l9gqtsdqc13ek7q.apps.googleusercontent.com",
          "client_type": 3
        }
      ],
      "api_key": [
        {
          "current_key": "AIzaSyDAtZOcDczAH02QjWiiTRHo8xnqdsSr89c"
        }
      ],
      "services": {
        "appinvite_service": {
          "other_platform_oauth_client": [
            {
              "client_id": "529868074322-bjiingfan8ifajfs4l9gqtsdqc13ek7q.apps.googleusercontent.com",
              "client_type": 3
            }
          ]
        }
      }
    }
  ],
  "configuration_version": "1"
}